-- Merging decision tree log ---
manifest
ADDED from C:\Users\idlfk\AndroidStudioProjects\RangShop\app\src\main\AndroidManifest.xml:2:1-33:12
INJECTED from C:\Users\idlfk\AndroidStudioProjects\RangShop\app\src\main\AndroidManifest.xml:2:1-33:12
INJECTED from C:\Users\idlfk\AndroidStudioProjects\RangShop\app\src\main\AndroidManifest.xml:2:1-33:12
INJECTED from C:\Users\idlfk\AndroidStudioProjects\RangShop\app\src\main\AndroidManifest.xml:2:1-33:12
MERGED from [com.android.support:design:27.1.1] C:\Users\idlfk\.gradle\caches\transforms-1\files-1.1\design-27.1.1.aar\fd3105738d55f9f42e9168989fa9e290\AndroidManifest.xml:17:1-22:12
MERGED from [com.android.support:appcompat-v7:27.1.1] C:\Users\idlfk\.gradle\caches\transforms-1\files-1.1\appcompat-v7-27.1.1.aar\665f6ecd9d40940b1e05811128eb9042\AndroidManifest.xml:17:1-22:12
MERGED from [com.android.support.constraint:constraint-layout:1.1.3] C:\Users\idlfk\.gradle\caches\transforms-1\files-1.1\constraint-layout-1.1.3.aar\125a5e2906f5bff41463e15ccbaa2e3a\AndroidManifest.xml:2:1-11:12
MERGED from [com.android.support:support-v4:27.1.1] C:\Users\idlfk\.gradle\caches\transforms-1\files-1.1\support-v4-27.1.1.aar\f0a96c295ef5fb3bfc3ffee35b588a5a\AndroidManifest.xml:17:1-22:12
MERGED from [com.github.bumptech.glide:glide:4.8.0] C:\Users\idlfk\.gradle\caches\transforms-1\files-1.1\glide-4.8.0.aar\89d093762beb95f6bf30ecd07abe463d\AndroidManifest.xml:2:1-12:12
MERGED from [com.android.support:recyclerview-v7:27.1.1] C:\Users\idlfk\.gradle\caches\transforms-1\files-1.1\recyclerview-v7-27.1.1.aar\ae8533a325e18a8b3ae0db6a13205730\AndroidManifest.xml:17:1-22:12
MERGED from [com.android.support:cardview-v7:27.1.1] C:\Users\idlfk\.gradle\caches\transforms-1\files-1.1\cardview-v7-27.1.1.aar\43e0be40b960c6cc4274e27c6bd4eab7\AndroidManifest.xml:17:1-22:12
MERGED from [com.android.support:support-fragment:27.1.1] C:\Users\idlfk\.gradle\caches\transforms-1\files-1.1\support-fragment-27.1.1.aar\1eff5384d14410ef8ec37c25c77072c8\AndroidManifest.xml:17:1-22:12
MERGED from [com.android.support:animated-vector-drawable:27.1.1] C:\Users\idlfk\.gradle\caches\transforms-1\files-1.1\animated-vector-drawable-27.1.1.aar\ab52524a4c96752582b9e1ae2573e796\AndroidManifest.xml:17:1-22:12
MERGED from [com.android.support:support-core-ui:27.1.1] C:\Users\idlfk\.gradle\caches\transforms-1\files-1.1\support-core-ui-27.1.1.aar\bed5b2ac6be7f3014508807e987e8ca5\AndroidManifest.xml:17:1-22:12
MERGED from [com.android.support:support-core-utils:27.1.1] C:\Users\idlfk\.gradle\caches\transforms-1\files-1.1\support-core-utils-27.1.1.aar\354e249c90ed2cdf1538178fa01bd39f\AndroidManifest.xml:17:1-22:12
MERGED from [com.android.support:support-vector-drawable:27.1.1] C:\Users\idlfk\.gradle\caches\transforms-1\files-1.1\support-vector-drawable-27.1.1.aar\d742471c312efadfc6d6f9023466d628\AndroidManifest.xml:17:1-22:12
MERGED from [com.android.support:transition:27.1.1] C:\Users\idlfk\.gradle\caches\transforms-1\files-1.1\transition-27.1.1.aar\359a6d04cdee3dd6eab840d948fa23ae\AndroidManifest.xml:17:1-22:12
MERGED from [com.android.support:support-media-compat:27.1.1] C:\Users\idlfk\.gradle\caches\transforms-1\files-1.1\support-media-compat-27.1.1.aar\56d7f629488d0d51b3c7cc943e607523\AndroidManifest.xml:17:1-22:12
MERGED from [com.android.support:support-compat:27.1.1] C:\Users\idlfk\.gradle\caches\transforms-1\files-1.1\support-compat-27.1.1.aar\2dccc51fe554b7b2cbe93494792b78bf\AndroidManifest.xml:17:1-22:12
MERGED from [com.github.bumptech.glide:gifdecoder:4.8.0] C:\Users\idlfk\.gradle\caches\transforms-1\files-1.1\gifdecoder-4.8.0.aar\08005c4b569923ad13dbb7f9f22dc3de\AndroidManifest.xml:2:1-11:12
MERGED from [android.arch.lifecycle:livedata-core:1.1.0] C:\Users\idlfk\.gradle\caches\transforms-1\files-1.1\livedata-core-1.1.0.aar\b3e458ea1585ed2dbfeb0629a70c21d8\AndroidManifest.xml:17:1-22:12
MERGED from [android.arch.lifecycle:viewmodel:1.1.0] C:\Users\idlfk\.gradle\caches\transforms-1\files-1.1\viewmodel-1.1.0.aar\1fe53fe9b60300e2705ebf74aec4ba6e\AndroidManifest.xml:17:1-22:12
MERGED from [android.arch.lifecycle:runtime:1.1.0] C:\Users\idlfk\.gradle\caches\transforms-1\files-1.1\runtime-1.1.0.aar\996a5edde79489b9e6af60365956cfc0\AndroidManifest.xml:17:1-22:12
MERGED from [android.arch.core:runtime:1.1.0] C:\Users\idlfk\.gradle\caches\transforms-1\files-1.1\runtime-1.1.0.aar\4cb65b3b983e0b6fb441cd17887a0909\AndroidManifest.xml:17:1-22:12
INJECTED from C:\Users\idlfk\AndroidStudioProjects\RangShop\app\src\main\AndroidManifest.xml:2:1-33:12
INJECTED from C:\Users\idlfk\AndroidStudioProjects\RangShop\app\src\main\AndroidManifest.xml:2:1-33:12
INJECTED from C:\Users\idlfk\AndroidStudioProjects\RangShop\app\src\main\AndroidManifest.xml:2:1-33:12
	package
		ADDED from C:\Users\idlfk\AndroidStudioProjects\RangShop\app\src\main\AndroidManifest.xml:4:5-33
		INJECTED from C:\Users\idlfk\AndroidStudioProjects\RangShop\app\src\main\AndroidManifest.xml
		INJECTED from C:\Users\idlfk\AndroidStudioProjects\RangShop\app\src\main\AndroidManifest.xml
	android:versionName
		INJECTED from C:\Users\idlfk\AndroidStudioProjects\RangShop\app\src\main\AndroidManifest.xml
		ADDED from C:\Users\idlfk\AndroidStudioProjects\RangShop\app\src\main\AndroidManifest.xml:2:1-33:12
		INJECTED from C:\Users\idlfk\AndroidStudioProjects\RangShop\app\src\main\AndroidManifest.xml
	xmlns:tools
		ADDED from C:\Users\idlfk\AndroidStudioProjects\RangShop\app\src\main\AndroidManifest.xml:3:5-51
	android:versionCode
		INJECTED from C:\Users\idlfk\AndroidStudioProjects\RangShop\app\src\main\AndroidManifest.xml
		ADDED from C:\Users\idlfk\AndroidStudioProjects\RangShop\app\src\main\AndroidManifest.xml:2:1-33:12
		INJECTED from C:\Users\idlfk\AndroidStudioProjects\RangShop\app\src\main\AndroidManifest.xml
	xmlns:android
		ADDED from C:\Users\idlfk\AndroidStudioProjects\RangShop\app\src\main\AndroidManifest.xml:2:11-69
uses-permission#android.permission.INTERNET
ADDED from C:\Users\idlfk\AndroidStudioProjects\RangShop\app\src\main\AndroidManifest.xml:6:5-67
	android:name
		ADDED from C:\Users\idlfk\AndroidStudioProjects\RangShop\app\src\main\AndroidManifest.xml:6:22-64
application
ADDED from C:\Users\idlfk\AndroidStudioProjects\RangShop\app\src\main\AndroidManifest.xml:8:5-31:19
MERGED from [com.android.support.constraint:constraint-layout:1.1.3] C:\Users\idlfk\.gradle\caches\transforms-1\files-1.1\constraint-layout-1.1.3.aar\125a5e2906f5bff41463e15ccbaa2e3a\AndroidManifest.xml:9:5-20
MERGED from [com.android.support.constraint:constraint-layout:1.1.3] C:\Users\idlfk\.gradle\caches\transforms-1\files-1.1\constraint-layout-1.1.3.aar\125a5e2906f5bff41463e15ccbaa2e3a\AndroidManifest.xml:9:5-20
MERGED from [com.github.bumptech.glide:glide:4.8.0] C:\Users\idlfk\.gradle\caches\transforms-1\files-1.1\glide-4.8.0.aar\89d093762beb95f6bf30ecd07abe463d\AndroidManifest.xml:10:5-20
MERGED from [com.github.bumptech.glide:glide:4.8.0] C:\Users\idlfk\.gradle\caches\transforms-1\files-1.1\glide-4.8.0.aar\89d093762beb95f6bf30ecd07abe463d\AndroidManifest.xml:10:5-20
MERGED from [com.github.bumptech.glide:gifdecoder:4.8.0] C:\Users\idlfk\.gradle\caches\transforms-1\files-1.1\gifdecoder-4.8.0.aar\08005c4b569923ad13dbb7f9f22dc3de\AndroidManifest.xml:9:5-20
MERGED from [com.github.bumptech.glide:gifdecoder:4.8.0] C:\Users\idlfk\.gradle\caches\transforms-1\files-1.1\gifdecoder-4.8.0.aar\08005c4b569923ad13dbb7f9f22dc3de\AndroidManifest.xml:9:5-20
	android:supportsRtl
		ADDED from C:\Users\idlfk\AndroidStudioProjects\RangShop\app\src\main\AndroidManifest.xml:13:9-35
	android:label
		ADDED from C:\Users\idlfk\AndroidStudioProjects\RangShop\app\src\main\AndroidManifest.xml:11:9-41
	tools:ignore
		ADDED from C:\Users\idlfk\AndroidStudioProjects\RangShop\app\src\main\AndroidManifest.xml:15:9-48
	android:roundIcon
		ADDED from C:\Users\idlfk\AndroidStudioProjects\RangShop\app\src\main\AndroidManifest.xml:12:9-54
	android:icon
		ADDED from C:\Users\idlfk\AndroidStudioProjects\RangShop\app\src\main\AndroidManifest.xml:10:9-43
	android:allowBackup
		ADDED from C:\Users\idlfk\AndroidStudioProjects\RangShop\app\src\main\AndroidManifest.xml:9:9-35
	android:theme
		ADDED from C:\Users\idlfk\AndroidStudioProjects\RangShop\app\src\main\AndroidManifest.xml:14:9-40
activity#com.erang.rangshop.activity.LoginActivity
ADDED from C:\Users\idlfk\AndroidStudioProjects\RangShop\app\src\main\AndroidManifest.xml:16:9-69
	android:name
		ADDED from C:\Users\idlfk\AndroidStudioProjects\RangShop\app\src\main\AndroidManifest.xml:16:19-57
activity#com.erang.rangshop.activity.MainActivity
ADDED from C:\Users\idlfk\AndroidStudioProjects\RangShop\app\src\main\AndroidManifest.xml:17:9-59
	android:name
		ADDED from C:\Users\idlfk\AndroidStudioProjects\RangShop\app\src\main\AndroidManifest.xml:17:19-56
activity#com.erang.rangshop.activity.LoadingActivity
ADDED from C:\Users\idlfk\AndroidStudioProjects\RangShop\app\src\main\AndroidManifest.xml:18:9-24:20
	android:name
		ADDED from C:\Users\idlfk\AndroidStudioProjects\RangShop\app\src\main\AndroidManifest.xml:18:19-59
intent-filter#action:name:android.intent.action.MAIN+category:name:android.intent.category.LAUNCHER
ADDED from C:\Users\idlfk\AndroidStudioProjects\RangShop\app\src\main\AndroidManifest.xml:19:13-23:29
action#android.intent.action.MAIN
ADDED from C:\Users\idlfk\AndroidStudioProjects\RangShop\app\src\main\AndroidManifest.xml:20:17-69
	android:name
		ADDED from C:\Users\idlfk\AndroidStudioProjects\RangShop\app\src\main\AndroidManifest.xml:20:25-66
category#android.intent.category.LAUNCHER
ADDED from C:\Users\idlfk\AndroidStudioProjects\RangShop\app\src\main\AndroidManifest.xml:22:17-77
	android:name
		ADDED from C:\Users\idlfk\AndroidStudioProjects\RangShop\app\src\main\AndroidManifest.xml:22:27-74
activity#com.erang.rangshop.activity.RegisterActivity
ADDED from C:\Users\idlfk\AndroidStudioProjects\RangShop\app\src\main\AndroidManifest.xml:25:9-63
	android:name
		ADDED from C:\Users\idlfk\AndroidStudioProjects\RangShop\app\src\main\AndroidManifest.xml:25:19-60
activity#com.erang.rangshop.activity.BuyListActivity
ADDED from C:\Users\idlfk\AndroidStudioProjects\RangShop\app\src\main\AndroidManifest.xml:26:9-62
	android:name
		ADDED from C:\Users\idlfk\AndroidStudioProjects\RangShop\app\src\main\AndroidManifest.xml:26:19-59
activity#com.erang.rangshop.activity.UpdateInfoActivity
ADDED from C:\Users\idlfk\AndroidStudioProjects\RangShop\app\src\main\AndroidManifest.xml:27:9-65
	android:name
		ADDED from C:\Users\idlfk\AndroidStudioProjects\RangShop\app\src\main\AndroidManifest.xml:27:19-62
activity#com.erang.rangshop.util.DaumAddressApiActivity
ADDED from C:\Users\idlfk\AndroidStudioProjects\RangShop\app\src\main\AndroidManifest.xml:28:9-65
	android:name
		ADDED from C:\Users\idlfk\AndroidStudioProjects\RangShop\app\src\main\AndroidManifest.xml:28:19-62
activity#com.erang.rangshop.activity.ProductViewActivity
ADDED from C:\Users\idlfk\AndroidStudioProjects\RangShop\app\src\main\AndroidManifest.xml:29:9-66
	android:name
		ADDED from C:\Users\idlfk\AndroidStudioProjects\RangShop\app\src\main\AndroidManifest.xml:29:19-63
activity#com.erang.rangshop.activity.OrderActivity
ADDED from C:\Users\idlfk\AndroidStudioProjects\RangShop\app\src\main\AndroidManifest.xml:30:9-60
	android:name
		ADDED from C:\Users\idlfk\AndroidStudioProjects\RangShop\app\src\main\AndroidManifest.xml:30:19-57
uses-sdk
INJECTED from C:\Users\idlfk\AndroidStudioProjects\RangShop\app\src\main\AndroidManifest.xml reason: use-sdk injection requested
INJECTED from C:\Users\idlfk\AndroidStudioProjects\RangShop\app\src\main\AndroidManifest.xml
INJECTED from C:\Users\idlfk\AndroidStudioProjects\RangShop\app\src\main\AndroidManifest.xml
MERGED from [com.android.support:design:27.1.1] C:\Users\idlfk\.gradle\caches\transforms-1\files-1.1\design-27.1.1.aar\fd3105738d55f9f42e9168989fa9e290\AndroidManifest.xml:20:5-44
MERGED from [com.android.support:design:27.1.1] C:\Users\idlfk\.gradle\caches\transforms-1\files-1.1\design-27.1.1.aar\fd3105738d55f9f42e9168989fa9e290\AndroidManifest.xml:20:5-44
MERGED from [com.android.support:appcompat-v7:27.1.1] C:\Users\idlfk\.gradle\caches\transforms-1\files-1.1\appcompat-v7-27.1.1.aar\665f6ecd9d40940b1e05811128eb9042\AndroidManifest.xml:20:5-44
MERGED from [com.android.support:appcompat-v7:27.1.1] C:\Users\idlfk\.gradle\caches\transforms-1\files-1.1\appcompat-v7-27.1.1.aar\665f6ecd9d40940b1e05811128eb9042\AndroidManifest.xml:20:5-44
MERGED from [com.android.support.constraint:constraint-layout:1.1.3] C:\Users\idlfk\.gradle\caches\transforms-1\files-1.1\constraint-layout-1.1.3.aar\125a5e2906f5bff41463e15ccbaa2e3a\AndroidManifest.xml:5:5-7:41
MERGED from [com.android.support.constraint:constraint-layout:1.1.3] C:\Users\idlfk\.gradle\caches\transforms-1\files-1.1\constraint-layout-1.1.3.aar\125a5e2906f5bff41463e15ccbaa2e3a\AndroidManifest.xml:5:5-7:41
MERGED from [com.android.support:support-v4:27.1.1] C:\Users\idlfk\.gradle\caches\transforms-1\files-1.1\support-v4-27.1.1.aar\f0a96c295ef5fb3bfc3ffee35b588a5a\AndroidManifest.xml:20:5-44
MERGED from [com.android.support:support-v4:27.1.1] C:\Users\idlfk\.gradle\caches\transforms-1\files-1.1\support-v4-27.1.1.aar\f0a96c295ef5fb3bfc3ffee35b588a5a\AndroidManifest.xml:20:5-44
MERGED from [com.github.bumptech.glide:glide:4.8.0] C:\Users\idlfk\.gradle\caches\transforms-1\files-1.1\glide-4.8.0.aar\89d093762beb95f6bf30ecd07abe463d\AndroidManifest.xml:6:5-8:41
MERGED from [com.github.bumptech.glide:glide:4.8.0] C:\Users\idlfk\.gradle\caches\transforms-1\files-1.1\glide-4.8.0.aar\89d093762beb95f6bf30ecd07abe463d\AndroidManifest.xml:6:5-8:41
MERGED from [com.android.support:recyclerview-v7:27.1.1] C:\Users\idlfk\.gradle\caches\transforms-1\files-1.1\recyclerview-v7-27.1.1.aar\ae8533a325e18a8b3ae0db6a13205730\AndroidManifest.xml:20:5-44
MERGED from [com.android.support:recyclerview-v7:27.1.1] C:\Users\idlfk\.gradle\caches\transforms-1\files-1.1\recyclerview-v7-27.1.1.aar\ae8533a325e18a8b3ae0db6a13205730\AndroidManifest.xml:20:5-44
MERGED from [com.android.support:cardview-v7:27.1.1] C:\Users\idlfk\.gradle\caches\transforms-1\files-1.1\cardview-v7-27.1.1.aar\43e0be40b960c6cc4274e27c6bd4eab7\AndroidManifest.xml:20:5-44
MERGED from [com.android.support:cardview-v7:27.1.1] C:\Users\idlfk\.gradle\caches\transforms-1\files-1.1\cardview-v7-27.1.1.aar\43e0be40b960c6cc4274e27c6bd4eab7\AndroidManifest.xml:20:5-44
MERGED from [com.android.support:support-fragment:27.1.1] C:\Users\idlfk\.gradle\caches\transforms-1\files-1.1\support-fragment-27.1.1.aar\1eff5384d14410ef8ec37c25c77072c8\AndroidManifest.xml:20:5-44
MERGED from [com.android.support:support-fragment:27.1.1] C:\Users\idlfk\.gradle\caches\transforms-1\files-1.1\support-fragment-27.1.1.aar\1eff5384d14410ef8ec37c25c77072c8\AndroidManifest.xml:20:5-44
MERGED from [com.android.support:animated-vector-drawable:27.1.1] C:\Users\idlfk\.gradle\caches\transforms-1\files-1.1\animated-vector-drawable-27.1.1.aar\ab52524a4c96752582b9e1ae2573e796\AndroidManifest.xml:20:5-44
MERGED from [com.android.support:animated-vector-drawable:27.1.1] C:\Users\idlfk\.gradle\caches\transforms-1\files-1.1\animated-vector-drawable-27.1.1.aar\ab52524a4c96752582b9e1ae2573e796\AndroidManifest.xml:20:5-44
MERGED from [com.android.support:support-core-ui:27.1.1] C:\Users\idlfk\.gradle\caches\transforms-1\files-1.1\support-core-ui-27.1.1.aar\bed5b2ac6be7f3014508807e987e8ca5\AndroidManifest.xml:20:5-44
MERGED from [com.android.support:support-core-ui:27.1.1] C:\Users\idlfk\.gradle\caches\transforms-1\files-1.1\support-core-ui-27.1.1.aar\bed5b2ac6be7f3014508807e987e8ca5\AndroidManifest.xml:20:5-44
MERGED from [com.android.support:support-core-utils:27.1.1] C:\Users\idlfk\.gradle\caches\transforms-1\files-1.1\support-core-utils-27.1.1.aar\354e249c90ed2cdf1538178fa01bd39f\AndroidManifest.xml:20:5-44
MERGED from [com.android.support:support-core-utils:27.1.1] C:\Users\idlfk\.gradle\caches\transforms-1\files-1.1\support-core-utils-27.1.1.aar\354e249c90ed2cdf1538178fa01bd39f\AndroidManifest.xml:20:5-44
MERGED from [com.android.support:support-vector-drawable:27.1.1] C:\Users\idlfk\.gradle\caches\transforms-1\files-1.1\support-vector-drawable-27.1.1.aar\d742471c312efadfc6d6f9023466d628\AndroidManifest.xml:20:5-44
MERGED from [com.android.support:support-vector-drawable:27.1.1] C:\Users\idlfk\.gradle\caches\transforms-1\files-1.1\support-vector-drawable-27.1.1.aar\d742471c312efadfc6d6f9023466d628\AndroidManifest.xml:20:5-44
MERGED from [com.android.support:transition:27.1.1] C:\Users\idlfk\.gradle\caches\transforms-1\files-1.1\transition-27.1.1.aar\359a6d04cdee3dd6eab840d948fa23ae\AndroidManifest.xml:20:5-44
MERGED from [com.android.support:transition:27.1.1] C:\Users\idlfk\.gradle\caches\transforms-1\files-1.1\transition-27.1.1.aar\359a6d04cdee3dd6eab840d948fa23ae\AndroidManifest.xml:20:5-44
MERGED from [com.android.support:support-media-compat:27.1.1] C:\Users\idlfk\.gradle\caches\transforms-1\files-1.1\support-media-compat-27.1.1.aar\56d7f629488d0d51b3c7cc943e607523\AndroidManifest.xml:20:5-44
MERGED from [com.android.support:support-media-compat:27.1.1] C:\Users\idlfk\.gradle\caches\transforms-1\files-1.1\support-media-compat-27.1.1.aar\56d7f629488d0d51b3c7cc943e607523\AndroidManifest.xml:20:5-44
MERGED from [com.android.support:support-compat:27.1.1] C:\Users\idlfk\.gradle\caches\transforms-1\files-1.1\support-compat-27.1.1.aar\2dccc51fe554b7b2cbe93494792b78bf\AndroidManifest.xml:20:5-44
MERGED from [com.android.support:support-compat:27.1.1] C:\Users\idlfk\.gradle\caches\transforms-1\files-1.1\support-compat-27.1.1.aar\2dccc51fe554b7b2cbe93494792b78bf\AndroidManifest.xml:20:5-44
MERGED from [com.github.bumptech.glide:gifdecoder:4.8.0] C:\Users\idlfk\.gradle\caches\transforms-1\files-1.1\gifdecoder-4.8.0.aar\08005c4b569923ad13dbb7f9f22dc3de\AndroidManifest.xml:5:5-7:41
MERGED from [com.github.bumptech.glide:gifdecoder:4.8.0] C:\Users\idlfk\.gradle\caches\transforms-1\files-1.1\gifdecoder-4.8.0.aar\08005c4b569923ad13dbb7f9f22dc3de\AndroidManifest.xml:5:5-7:41
MERGED from [android.arch.lifecycle:livedata-core:1.1.0] C:\Users\idlfk\.gradle\caches\transforms-1\files-1.1\livedata-core-1.1.0.aar\b3e458ea1585ed2dbfeb0629a70c21d8\AndroidManifest.xml:20:5-44
MERGED from [android.arch.lifecycle:livedata-core:1.1.0] C:\Users\idlfk\.gradle\caches\transforms-1\files-1.1\livedata-core-1.1.0.aar\b3e458ea1585ed2dbfeb0629a70c21d8\AndroidManifest.xml:20:5-44
MERGED from [android.arch.lifecycle:viewmodel:1.1.0] C:\Users\idlfk\.gradle\caches\transforms-1\files-1.1\viewmodel-1.1.0.aar\1fe53fe9b60300e2705ebf74aec4ba6e\AndroidManifest.xml:20:5-44
MERGED from [android.arch.lifecycle:viewmodel:1.1.0] C:\Users\idlfk\.gradle\caches\transforms-1\files-1.1\viewmodel-1.1.0.aar\1fe53fe9b60300e2705ebf74aec4ba6e\AndroidManifest.xml:20:5-44
MERGED from [android.arch.lifecycle:runtime:1.1.0] C:\Users\idlfk\.gradle\caches\transforms-1\files-1.1\runtime-1.1.0.aar\996a5edde79489b9e6af60365956cfc0\AndroidManifest.xml:20:5-44
MERGED from [android.arch.lifecycle:runtime:1.1.0] C:\Users\idlfk\.gradle\caches\transforms-1\files-1.1\runtime-1.1.0.aar\996a5edde79489b9e6af60365956cfc0\AndroidManifest.xml:20:5-44
MERGED from [android.arch.core:runtime:1.1.0] C:\Users\idlfk\.gradle\caches\transforms-1\files-1.1\runtime-1.1.0.aar\4cb65b3b983e0b6fb441cd17887a0909\AndroidManifest.xml:20:5-44
MERGED from [android.arch.core:runtime:1.1.0] C:\Users\idlfk\.gradle\caches\transforms-1\files-1.1\runtime-1.1.0.aar\4cb65b3b983e0b6fb441cd17887a0909\AndroidManifest.xml:20:5-44
INJECTED from C:\Users\idlfk\AndroidStudioProjects\RangShop\app\src\main\AndroidManifest.xml
INJECTED from C:\Users\idlfk\AndroidStudioProjects\RangShop\app\src\main\AndroidManifest.xml
	android:targetSdkVersion
		INJECTED from C:\Users\idlfk\AndroidStudioProjects\RangShop\app\src\main\AndroidManifest.xml
		ADDED from C:\Users\idlfk\AndroidStudioProjects\RangShop\app\src\main\AndroidManifest.xml
		INJECTED from C:\Users\idlfk\AndroidStudioProjects\RangShop\app\src\main\AndroidManifest.xml
	android:minSdkVersion
		INJECTED from C:\Users\idlfk\AndroidStudioProjects\RangShop\app\src\main\AndroidManifest.xml
		ADDED from C:\Users\idlfk\AndroidStudioProjects\RangShop\app\src\main\AndroidManifest.xml
		INJECTED from C:\Users\idlfk\AndroidStudioProjects\RangShop\app\src\main\AndroidManifest.xml
